C:\Users\Vishal Kumar\eclipse-workspace\ddd\src\main\java\FileContainer\Readfromfile.java
C:\Users\Vishal Kumar\eclipse-workspace\ddd\src\main\java\FileContainer\Readfromjson.java
C:\Users\Vishal Kumar\eclipse-workspace\ddd\src\main\java\com\vogella\jersey\todo\RESTfulHelloWorld.java
C:\Users\Vishal Kumar\eclipse-workspace\ddd\src\main\java\FileContainer\Writetofile.java
C:\Users\Vishal Kumar\eclipse-workspace\ddd\src\main\java\FileContainer\Readfromxml.java
